module gitlab.com/gitlab-org/gitaly

require (
	github.com/beorn7/perks v1.0.1 // indirect
	github.com/cloudflare/tableflip v1.2.1-0.20200514155827-4baec9811f2b
	github.com/getsentry/sentry-go v0.5.1
	github.com/git-lfs/git-lfs v1.5.1-0.20200916154635-9ea4eed5b112
	github.com/gogo/protobuf v1.2.1 // indirect
	github.com/golang/protobuf v1.3.2
	github.com/google/uuid v1.1.1
	github.com/grpc-ecosystem/go-grpc-middleware v1.0.0
	github.com/grpc-ecosystem/go-grpc-prometheus v1.2.0
	github.com/hashicorp/go-uuid v1.0.2 // indirect
	github.com/kelseyhightower/envconfig v1.3.0
	github.com/lib/pq v1.2.0
	github.com/libgit2/git2go/v30 v30.0.5
	github.com/mattn/go-isatty v0.0.12 // indirect
	github.com/olekukonko/tablewriter v0.0.2
	github.com/opentracing/opentracing-go v1.0.2
	github.com/pelletier/go-toml v1.8.1
	github.com/prometheus/client_golang v1.0.0
	github.com/prometheus/client_model v0.0.0-20190812154241-14fe0d1b01d4
	github.com/prometheus/procfs v0.0.3 // indirect
	github.com/rubenv/sql-migrate v0.0.0-20191213152630-06338513c237
	github.com/sirupsen/logrus v1.6.0
	github.com/stretchr/testify v1.5.1
	github.com/uber/jaeger-client-go v2.15.0+incompatible
	gitlab.com/gitlab-org/gitlab-shell v0.0.0-20200921044701-1a2bfecd2f0e
	gitlab.com/gitlab-org/labkit v0.0.0-20200908084045-45895e129029
	go.uber.org/atomic v1.4.0 // indirect
	golang.org/x/crypto v0.0.0-20200820211705-5c72a883971a // indirect
	golang.org/x/net v0.0.0-20200904194848-62affa334b73 // indirect
	golang.org/x/sync v0.0.0-20200625203802-6e8e738ad208
	golang.org/x/sys v0.0.0-20200918174421-af09f7315aff
	golang.org/x/text v0.3.3 // indirect
	google.golang.org/grpc v1.24.0
	gopkg.in/yaml.v2 v2.3.0
)

go 1.13
